ch-03-dplyr
…
In [22]:

filter ( flights, month == 1, day ==1 ) %>% print

# A tibble: 842 x 19
    year month   day dep_time sched_dep_time dep_delay arr_time sched_arr_time
   <int> <int> <int>    <int>          <int>     <dbl>    <int>          <int>
 1  2013     1     1      517            515         2      830            819
 2  2013     1     1      533            529         4      850            830
 3  2013     1     1      542            540         2      923            850
 4  2013     1     1      544            545        -1     1004           1022
 5  2013     1     1      554            600        -6      812            837
 6  2013     1     1      554            558        -4      740            728
 7  2013     1     1      555            600        -5      913            854
 8  2013     1     1      557            600        -3      709            723
 9  2013     1     1      557            600        -3      838            846
10  2013     1     1      558            600        -2      753            745
# ... with 832 more rows, and 11 more variables: arr_delay <dbl>,
#   carrier <chr>, flight <int>, tailnum <chr>, origin <chr>, dest <chr>,
#   air_time <dbl>, distance <dbl>, hour <dbl>, minute <dbl>, time_hour <dttm>
…
## 
## dplyrnear
near

function (x, y, tol = .Machine$double.eps^0.5) 
{
    abs(x - y) < tol
}

In [12]:

## select everything
select (flights, dep_delay, everything()) %>% print

# A tibble: 336,776 x 19
   dep_delay  year month   day dep_time sched_dep_time arr_time sched_arr_time
       <dbl> <int> <int> <int>    <int>          <int>    <int>          <int>
 1         2  2013     1     1      517            515      830            819
 2         4  2013     1     1      533            529      850            830
 3         2  2013     1     1      542            540      923            850
 4        -1  2013     1     1      544            545     1004           1022
 5        -6  2013     1     1      554            600      812            837
 6        -4  2013     1     1      554            558      740            728
 7        -5  2013     1     1      555            600      913            854
 8        -3  2013     1     1      557            600      709            723
 9        -3  2013     1     1      557            600      838            846
10        -2  2013     1     1      558            600      753            745
# ... with 336,766 more rows, and 11 more variables: arr_delay <dbl>,
#   carrier <chr>, flight <int>, tailnum <chr>, origin <chr>, dest <chr>,
#   air_time <dbl>, distance <dbl>, hour <dbl>, minute <dbl>, time_hour <dttm>

In [14]:

select (flights, contains("TIME")) %>% print

# A tibble: 336,776 x 6
   dep_time sched_dep_time arr_time sched_arr_time air_time           time_hour
      <int>          <int>    <int>          <int>    <dbl>              <dttm>
 1      517            515      830            819      227 2013-01-01 05:00:00
 2      533            529      850            830      227 2013-01-01 05:00:00
 3      542            540      923            850      160 2013-01-01 05:00:00
 4      544            545     1004           1022      183 2013-01-01 05:00:00
 5      554            600      812            837      116 2013-01-01 06:00:00
 6      554            558      740            728      150 2013-01-01 05:00:00
 7      555            600      913            854      158 2013-01-01 06:00:00
 8      557            600      709            723       53 2013-01-01 06:00:00
 9      557            600      838            846      140 2013-01-01 06:00:00
10      558            600      753            745      138 2013-01-01 06:00:00
# ... with 336,766 more rows
…
In [20]:

## mutate
## transmute
mutate (flights, gain = arr_delay - dep_delay, hours = air_time / 60) %>% print
transmute( flights, 
    gain = arr_delay - dep_delay, 
    hours = air_time / 60
) %>% print

# A tibble: 336,776 x 21
    year month   day dep_time sched_dep_time dep_delay arr_time sched_arr_time
   <int> <int> <int>    <int>          <int>     <dbl>    <int>          <int>
 1  2013     1     1      517            515         2      830            819
 2  2013     1     1      533            529         4      850            830
 3  2013     1     1      542            540         2      923            850
 4  2013     1     1      544            545        -1     1004           1022
 5  2013     1     1      554            600        -6      812            837
 6  2013     1     1      554            558        -4      740            728
 7  2013     1     1      555            600        -5      913            854
 8  2013     1     1      557            600        -3      709            723
 9  2013     1     1      557            600        -3      838            846
10  2013     1     1      558            600        -2      753            745
# ... with 336,766 more rows, and 13 more variables: arr_delay <dbl>,
#   carrier <chr>, flight <int>, tailnum <chr>, origin <chr>, dest <chr>,
#   air_time <dbl>, distance <dbl>, hour <dbl>, minute <dbl>, time_hour <dttm>,
#   gain <dbl>, hours <dbl>
# A tibble: 336,776 x 2
    gain     hours
   <dbl>     <dbl>
 1     9 3.7833333
 2    16 3.7833333
 3    31 2.6666667
 4   -17 3.0500000
 5   -19 1.9333333
 6    16 2.5000000
 7    24 2.6333333
 8   -11 0.8833333
 9    -5 2.3333333
10    10 2.3000000
# ... with 336,766 more rows
…
In [29]:

# n_distinct
not_cancelled %>%
    group_by (dest) %>%
    summarise(carriers = n_distinct(carrier)) %>%
    arrange(desc(carriers)) %>% print

# A tibble: 104 x 2
    dest carriers
   <chr>    <int>
 1   ATL        7
 2   BOS        7
 3   CLT        7
 4   ORD        7
 5   TPA        7
 6   AUS        6
 7   DCA        6
 8   DTW        6
 9   IAD        6
10   MSP        6
# ... with 94 more rows

In [32]:

## countdplyr
## 
not_cancelled %>%
    count(tailnum) %>% print

# A tibble: 4,037 x 2
   tailnum     n
     <chr> <int>
 1  D942DN     4
 2  N0EGMQ   352
 3  N10156   145
 4  N102UW    48
 5  N103US    46
 6  N104UW    46
 7  N10575   269
 8  N105UW    45
 9  N107US    41
10  N108UW    60
# ... with 4,027 more rows

In [34]:

## wt
not_cancelled %>%
    count(tailnum, wt = distance) %>% print

# A tibble: 4,037 x 2
   tailnum      n
     <chr>  <dbl>
 1  D942DN   3418
 2  N0EGMQ 239143
 3  N10156 109664
 4  N102UW  25722
 5  N103US  24619
 6  N104UW  24616
 7  N10575 139903
 8  N105UW  23618
 9  N107US  21677
10  N108UW  32070
# ... with 4,027 more rows
…
