ch-18-Modelr
…
    a[1] + data$x * a[2]
}
measure_distance <- function (mod, data) {
    diff <- data$y - model1 (mod, data)
    sqrt (mean (diff^2))
}
sim1_dist <- function (a1, a2) {
    measure_distance(c(a1, a2), sim1)
}
models <- 
    models %>% 
    mutate (dist = map2_dbl(a1, a2, sim1_dist))
models %>% print()

# A tibble: 250 x 3
           a1         a2      dist
        <dbl>      <dbl>     <dbl>
 1  0.8575216 -0.6582737 19.970010
 2 26.0451669 -4.2369649 22.218366
 3  2.7671601  2.4398658  2.497724
 4 -7.6261425  4.5513674  7.726765
 5 11.0906090  1.4003647  4.340580
 6 11.6490750  0.6680416  4.511408
 7 36.2529270  0.2344492 22.747500
 8 35.0138047  1.1547273 26.075513
 9 26.7238719 -1.1912051 10.633482
10  8.7622920  0.4596744  6.571946
# ... with 240 more rows
…
