ch-13-lubridate
…
In [56]:

flights_dt %>%
    mutate (week = floor_date(dep_time, "week"), a = wday(week, label=TRUE))  %>%
    sample_n(30) %>% select(week, a) %>% print()

# A tibble: 30 x 2
         week     a
       <dttm> <ord>
 1 2013-01-20   Sun
 2 2013-07-14   Sun
 3 2013-10-06   Sun
 4 2013-02-24   Sun
 5 2013-12-15   Sun
 6 2013-12-01   Sun
 7 2013-03-24   Sun
 8 2013-12-22   Sun
 9 2013-03-17   Sun
10 2013-07-14   Sun
# ... with 20 more rows
…
