ch-20-purrr_broom
…
Attaching package: 'broom'

The following object is masked from 'package:modelr':

    bootstrap

In [5]:

library (gapminder)
gapminder %>% print()

# A tibble: 1,704 x 6
       country continent  year lifeExp      pop gdpPercap
        <fctr>    <fctr> <int>   <dbl>    <int>     <dbl>
 1 Afghanistan      Asia  1952  28.801  8425333  779.4453
 2 Afghanistan      Asia  1957  30.332  9240934  820.8530
 3 Afghanistan      Asia  1962  31.997 10267083  853.1007
 4 Afghanistan      Asia  1967  34.020 11537966  836.1971
 5 Afghanistan      Asia  1972  36.088 13079460  739.9811
 6 Afghanistan      Asia  1977  38.438 14880372  786.1134
 7 Afghanistan      Asia  1982  39.854 12881816  978.0114
 8 Afghanistan      Asia  1987  40.822 13867957  852.3959
 9 Afghanistan      Asia  1992  41.674 16317921  649.3414
10 Afghanistan      Asia  1997  41.763 22227415  635.3414
# ... with 1,694 more rows
…
Nested Data¶
?

In [14]:

## 
by_country <- gapminder %>%
    group_by (country, continent) %>%
    nest()
by_country %>% print()

# A tibble: 142 x 3
       country continent              data
        <fctr>    <fctr>            <list>
 1 Afghanistan      Asia <tibble [12 x 4]>
 2     Albania    Europe <tibble [12 x 4]>
 3     Algeria    Africa <tibble [12 x 4]>
 4      Angola    Africa <tibble [12 x 4]>
 5   Argentina  Americas <tibble [12 x 4]>
 6   Australia   Oceania <tibble [12 x 4]>
 7     Austria    Europe <tibble [12 x 4]>
 8     Bahrain      Asia <tibble [12 x 4]>
 9  Bangladesh      Asia <tibble [12 x 4]>
10     Belgium    Europe <tibble [12 x 4]>
# ... with 132 more rows

List-Columns¶

In [17]:

country_model <- function (df) {
    lm(lifeExp ~ year, data=df)
}
by_country <- by_country %>%
    mutate (model = map (data, country_model))
by_country %>% print()

# A tibble: 142 x 4
       country continent              data    model
        <fctr>    <fctr>            <list>   <list>
 1 Afghanistan      Asia <tibble [12 x 4]> <S3: lm>
 2     Albania    Europe <tibble [12 x 4]> <S3: lm>
 3     Algeria    Africa <tibble [12 x 4]> <S3: lm>
 4      Angola    Africa <tibble [12 x 4]> <S3: lm>
 5   Argentina  Americas <tibble [12 x 4]> <S3: lm>
 6   Australia   Oceania <tibble [12 x 4]> <S3: lm>
 7     Austria    Europe <tibble [12 x 4]> <S3: lm>
 8     Bahrain      Asia <tibble [12 x 4]> <S3: lm>
 9  Bangladesh      Asia <tibble [12 x 4]> <S3: lm>
10     Belgium    Europe <tibble [12 x 4]> <S3: lm>
# ... with 132 more rows

In [18]:

by_country <- by_country %>%
    mutate (
        resids = map2(data, model, add_residuals)
    )
by_country %>% print()

# A tibble: 142 x 5
       country continent              data    model            resids
        <fctr>    <fctr>            <list>   <list>            <list>
 1 Afghanistan      Asia <tibble [12 x 4]> <S3: lm> <tibble [12 x 5]>
 2     Albania    Europe <tibble [12 x 4]> <S3: lm> <tibble [12 x 5]>
 3     Algeria    Africa <tibble [12 x 4]> <S3: lm> <tibble [12 x 5]>
 4      Angola    Africa <tibble [12 x 4]> <S3: lm> <tibble [12 x 5]>
 5   Argentina  Americas <tibble [12 x 4]> <S3: lm> <tibble [12 x 5]>
 6   Australia   Oceania <tibble [12 x 4]> <S3: lm> <tibble [12 x 5]>
 7     Austria    Europe <tibble [12 x 4]> <S3: lm> <tibble [12 x 5]>
 8     Bahrain      Asia <tibble [12 x 4]> <S3: lm> <tibble [12 x 5]>
 9  Bangladesh      Asia <tibble [12 x 4]> <S3: lm> <tibble [12 x 5]>
10     Belgium    Europe <tibble [12 x 4]> <S3: lm> <tibble [12 x 5]>
# ... with 132 more rows
…
Model Quality¶

In [30]:

## broom, 
glance <-
    by_country %>%
    mutate (glance = map (model, broom::glance)) %>%
    unnest (glance, .drop=TRUE)
glance %>% print()

# A tibble: 142 x 13
       country continent r.squared adj.r.squared     sigma  statistic
        <fctr>    <fctr>     <dbl>         <dbl>     <dbl>      <dbl>
 1 Afghanistan      Asia 0.9477123     0.9424835 1.2227880  181.24941
 2     Albania    Europe 0.9105778     0.9016355 1.9830615  101.82901
 3     Algeria    Africa 0.9851172     0.9836289 1.3230064  661.91709
 4      Angola    Africa 0.8878146     0.8765961 1.4070091   79.13818
 5   Argentina  Americas 0.9955681     0.9951249 0.2923072 2246.36635
 6   Australia   Oceania 0.9796477     0.9776125 0.6206086  481.34586
 7     Austria    Europe 0.9921340     0.9913474 0.4074094 1261.29629
 8     Bahrain      Asia 0.9667398     0.9634138 1.6395865  290.65974
 9  Bangladesh      Asia 0.9893609     0.9882970 0.9766908  929.92637
10     Belgium    Europe 0.9945406     0.9939946 0.2929025 1821.68840
# ... with 132 more rows, and 7 more variables: p.value <dbl>, df <int>,
#   logLik <dbl>, AIC <dbl>, BIC <dbl>, deviance <dbl>, df.residual <int>
…
In [46]:

probs <- seq(.1, 1, .1)
mtcars %>%
    group_by (cyl) %>%
    summarise (p = list (probs), q = list (quantile (mpg, probs))) %>%
    unnest(p, q) %>% print()

# A tibble: 30 x 3
     cyl     p     q
   <dbl> <dbl> <dbl>
 1     4   0.1  21.5
 2     4   0.2  22.8
 3     4   0.3  22.8
 4     4   0.4  24.4
 5     4   0.5  26.0
 6     4   0.6  27.3
 7     4   0.7  30.4
 8     4   0.8  30.4
 9     4   0.9  32.4
10     4   1.0  33.9
# ... with 20 more rows
…
